{ "BMW" : {
"Model": "M3",
"Engine Size": 3.0,
"Fuel Type": "Petrol",
"Transmission": "Automatic",
"Colour": "Orange",
"Reg Year": 2015,
"Mileage": 15500,
"Price": "£45,995",
"Body Type": "Saloon",
"Description": "This stunning 431bhp Individual BMW M3 comes with an array of optional extras including BMW carbon exterior and M carbon ceramic brakes. Car is offered in exceptional condition having only covered 15500 miles. Benefits from the balance of BMW manufacturer unlimited mileage warranty until December 2018."
},
"Audi" : {
"Model": "RS6",
"Engine Size": 4.0,
"Fuel Type": "Petrol",
"Transmission": "Manual",
"Colour": "Black",
"Reg Year": 2016,
"Mileage": 11400,
"Body Type": "Estate",
"Price": "£76,995",
"Description": "The RS6 Performance has stunning pace, all weather ability and a fantastic interior. Our stunning 597bhp V8 twin turbo estate is offered in outstanding condition with only 11400 miles covered. The car benefits from an Audi manufacturer warranty until December 2019."
},
"Porsche" : {
"Model": "911 GT3",
"Engine Size": 3.8,
"Fuel Type": "Petrol",
"Transmission": "Semi-Auto",
"Colour": "Black",
"Reg Year": 2014,
"Mileage": 3300,
"Body Type": "Coupe",
"Price": "£128,995",
"Description": "This stunning 991 GT3 is offered in outstanding condition with only 3300  miles covered since new. The car comes complete with a full Porsche main dealer service history and the reassurance of a Porsche manufacturer warranty until July 2018."
},
"Mercedes-Benz" : {
"Model": "AMG GT GTS",
"Engine Size": 4.0,
"Fuel Type": "Petrol",
"Transmission": "Automatic",
"Colour": "Silver",
"Reg Year": 2016,
"Mileage": 12000,
"Body Type": "Coupe",
"Price": "£85,995",
"Description": "This stunning 503bhp V8 Bi Turbo is offered in exceptional condition and has covered 12000 miles by its 1 private owner. It comes complete with a full Mercedes Benz main dealer service history and the balance of a Mercedes Benz manufacturer warranty until March 2019."
}
}
